<?xml version="1.0" encoding="UTF-8"?>
<session version="1.0">
<refactoring accessors="true" comment="Delete element from project &apos;co.com.reto1.screenplay&apos;&#x0D;&#x0A;- Original project: &apos;co.com.reto1.screenplay&apos;&#x0D;&#x0A;- Original element: &apos;co.com.reto1.screenplay.tasks.ElMensaje.java&apos;" description="Delete element" element1="/src\/main\/java&lt;co.com.reto1.screenplay.tasks{ElMensaje.java" elements="1" flags="589830" id="org.eclipse.jdt.ui.delete" resources="0" stamp="1533855118741" subPackages="false" version="1.0"/>
</session>